Notice  № 282
Beneficiary: http://photostena.ru
Payment time: 11.10.2017 18:18:35
Amount: 7014.00 RUB
Transaction number: 2000830140624
Customer ID: 53402
Number in the store: 2000830140624
Filled by the payer in the payment form of the store:
Full name: Name Lastame 
Delivery address: 
E-mail: 